{
  "openapi" : "3.0.0",
  "externalDocs" : {
    "description" : "Encuentre mas información aquí",
    "url" : "https://git.aero.tur.ar/jsivori/aero-packs/wikis/swaggerdocs"
  },
  "info" : {
    "title" : "Aero Paquetes",
    "description" : "Aero-Packs es la aplicacion donde Aero S.R.L ofrece todos sus servicios en un único servicio integral.\n\nEste documento debe utilizarse como referencia para utilizar la API de AeroPacks. El mismo, esta en version beta. Pueden haber modificaciones o nueva información puede ser añadida.\n\nSe necesitan credenciales de acceso para el uso de esta API.\n",
    "version" : "1.0",
    "contact" : {
      "email" : "jonatan.sivori@aerolaplata.com.ar"
    },
    "license" : {
      "name" : "Apache 2.0",
      "url" : "http://www.apache.org/licenses/LICENSE-2.0.html"
    }
  },
  "components" : {
    "schemas" : {
      "Date" : {
        "type" : "string",
        "pattern" : "^[0-9]{4}\\-((0[1-9]|1[0-2])){1}-([012][0-9]|3[01])$",
        "example" : "2017-10-12"
      },
      "Time" : {
        "type" : "string",
        "pattern" : "(?:[01][0-9]|2[0-3])[0-5][0-9]",
        "example" : "2031"
      },
      "Base" : {
        "type" : "string",
        "description" : "Enumerativo string que representa la base de la salida.",
        "enum" : [ "SGL", "DBL", "TPL" ],
        "example" : "DBL"
      },
      "CategoryItem" : {
        "description" : "Categorización a la que pertenece una salida.",
        "type" : "object",
        "required" : [ "name" ],
        "properties" : {
          "name" : {
            "type" : "string",
            "description" : "Nombre de la categoría.",
            "example" : "Sol y Playa"
          }
        }
      },
      "ServiceItem" : {
        "description" : "Representa a un servicio de Productos Terrestres que forman parte de la salida.",
        "type" : "object",
        "required" : [ "detail", "service_kind" ],
        "properties" : {
          "detail" : {
            "type" : "string",
            "description" : "Nombre del servicio",
            "example" : "Traslado IN Privado (Desde:Aeropuerto Cancún  Hasta:Hotel Cancún)"
          },
          "service_kind" : {
            "type" : "string",
            "description" : "Tipo del servicio.",
            "enum" : [ "admission", "excursion", "generic", "internal aereal", "transfer", "travel_assistance", "visa" ],
            "example" : "transfer"
          }
        }
      },
      "IATACode" : {
        "description" : "Codigo de 3 letras que representa univocamente un lugar o aeropuerto.",
        "type" : "string",
        "pattern" : "^[A-Z]{3}$",
        "example" : "CUN"
      },
      "DepartureItem" : {
        "description" : "Representa una ruta de los cupos aéreos que forman parte de la salida.",
        "type" : "object",
        "required" : [ "flight_number", "date", "departure_airport", "arrival_airport", "departure_time", "arrival_time", "date_arrival", "direction" ],
        "properties" : {
          "flight_number" : {
            "type" : "string",
            "description" : "Numero identificador del vuelo.",
            "example" : "LA2411"
          },
          "date" : {
            "$ref" : "#/components/schemas/Date"
          },
          "departure_airport" : {
            "$ref" : "#/components/schemas/IATACode"
          },
          "arrival_airport" : {
            "$ref" : "#/components/schemas/IATACode"
          },
          "departure_time" : {
            "$ref" : "#/components/schemas/Time"
          },
          "arrival_time" : {
            "$ref" : "#/components/schemas/Time"
          },
          "date_arrival" : {
            "$ref" : "#/components/schemas/Date"
          },
          "direction" : {
            "description" : "Indicador del numero de escala dentro del vuelo general.",
            "type" : "integer",
            "example" : 1
          }
        }
      },
      "AccomodationItem" : {
        "type" : "object",
        "description" : "Representa datos de la habitacion de hotel de la salida.",
        "required" : [ "name", "category_name", "service_kind", "room_type", "stars", "regime", "check_in", "check_out", "nights", "city_iata" ],
        "properties" : {
          "name" : {
            "type" : "string",
            "description" : "Nombre del hotel al que pertenece la habitación.",
            "example" : "RIU Cancún"
          },
          "category_name" : {
            "type" : "string",
            "description" : "Nombre de la categoría de la habitación dentro del hotel.",
            "example" : "Doble Estándar Vista Mar (DBMB)"
          },
          "service_kind" : {
            "type" : "string",
            "description" : "Representa al tipo de servicio, siempre es hotel.",
            "example" : "hotel"
          },
          "room_type" : {
            "type" : "string",
            "description" : "Tipo de habitacion de acuerdo a la base de personas.",
            "enum" : [ "single", "double", "triple", "quadruple", "apartment" ],
            "example" : "double"
          },
          "stars" : {
            "type" : "integer",
            "description" : "Cantidad de estrellas del hotel.",
            "enum" : [ 1, 2, 3, 4, 5 ],
            "example" : 4
          },
          "regime" : {
            "description" : "Regimen de la tarifa del hotel.",
            "type" : "string",
            "enum" : [ "Sólo alojamiento", "Sólo desayuno", "Media pensión", "Pensión completa", "Todo incluido" ],
            "example" : "Todo incluido"
          },
          "check_in" : {
            "$ref" : "#/components/schemas/Date"
          },
          "check_out" : {
            "$ref" : "#/components/schemas/Date"
          },
          "nights" : {
            "type" : "integer",
            "description" : "Cantidad de noches que se contrata la habitación.",
            "example" : 8
          },
          "city_iata" : {
            "$ref" : "#/components/schemas/IATACode"
          }
        }
      },
      "PlaceItem" : {
        "type" : "object",
        "description" : "Lugar asociado a la salida.",
        "required" : [ "name", "country", "iata_code" ],
        "properties" : {
          "name" : {
            "type" : "string",
            "description" : "Nombre del lugar completo.",
            "example" : "México, Cancún"
          },
          "country" : {
            "type" : "string",
            "description" : "Nombre del país.",
            "example" : "México"
          },
          "iata_code" : {
            "$ref" : "#/components/schemas/IATACode"
          }
        }
      },
      "ImageItem" : {
        "type" : "object",
        "description" : "Representa una imagen de la salida.",
        "required" : [ "url" ],
        "properties" : {
          "url" : {
            "type" : "string",
            "description" : "URL de donde se obtiene la imagen.",
            "example" : "https://aero-tur-dev.s3-sa-east-1.amazonaws.com/cotizador/galleries_packages/58/temp2100720181033.jpg?X-Amz-Expires=600&X-Amz-Date=20180720T152436Z&X-Amz-Algorithm=AWS4-HMAC-SHA256&X-Amz-Credential=AKIAJDOYXBY4JJXICGEA/20180720/sa-east-1/s3/aws4_request&X-Amz-SignedHeaders=host&X-Amz-Signature=ffac7c390ebfd4bcf46006fd1c8bdd3e7b3dbe6c908da41767b3e823609f5cab"
          }
        }
      },
      "RateItem" : {
        "type" : "object",
        "description" : "Precio de la salida en distintas monedas.",
        "required" : [ "ars_value", "usd_value", "eur_value", "gbp_value" ],
        "properties" : {
          "ars_value" : {
            "type" : "number",
            "description" : "Precio en pesos.",
            "format" : "float",
            "example" : 90369.46
          },
          "usd_value" : {
            "type" : "number",
            "description" : "Precio en dolares.",
            "format" : "float",
            "example" : 3250.7
          },
          "eur_value" : {
            "type" : "number",
            "description" : "Precio en libras.",
            "format" : "float",
            "example" : 2712.17
          },
          "gbp_value" : {
            "type" : "number",
            "format" : "float",
            "example" : 2338.63
          }
        }
      },
      "SearchItem" : {
        "type" : "object",
        "required" : [ "id", "name", "description", "available", "observations", "start_date", "end_date", "base", "categories", "services", "departures", "accomodation", "places", "images", "prices", "prices_with_markup", "related_packages", "base_related_packages", "other_related_packages" ],
        "properties" : {
          "id" : {
            "type" : "integer",
            "example" : 1
          },
          "name" : {
            "type" : "string",
            "example" : "Salida a Cancún"
          },
          "description" : {
            "type" : "string",
            "example" : "Paquete Masivo N°1 - Cupo LA 19Jul18 8 nts - RIU Cancún - Doble Estándar Vista Mar (DBMB)."
          },
          "available" : {
            "type" : "boolean",
            "example" : true
          },
          "observations" : {
            "type" : "string",
            "example" : "Salida promocional para Cancun y alrededores."
          },
          "start_date" : {
            "$ref" : "#/components/schemas/Date"
          },
          "end_date" : {
            "$ref" : "#/components/schemas/Date"
          },
          "base" : {
            "$ref" : "#/components/schemas/Base"
          },
          "categories" : {
            "type" : "array",
            "items" : {
              "$ref" : "#/components/schemas/CategoryItem"
            }
          },
          "services" : {
            "type" : "array",
            "items" : {
              "$ref" : "#/components/schemas/ServiceItem"
            }
          },
          "departures" : {
            "type" : "array",
            "items" : {
              "$ref" : "#/components/schemas/DepartureItem"
            }
          },
          "accomodation" : {
            "type" : "array",
            "items" : {
              "$ref" : "#/components/schemas/AccomodationItem"
            }
          },
          "places" : {
            "type" : "array",
            "items" : {
              "$ref" : "#/components/schemas/PlaceItem"
            }
          },
          "images" : {
            "type" : "array",
            "items" : {
              "$ref" : "#/components/schemas/ImageItem"
            }
          },
          "prices" : {
            "type" : "array",
            "items" : {
              "$ref" : "#/components/schemas/RateItem"
            }
          },
          "prices_with_markup" : {
            "type" : "array",
            "items" : {
              "$ref" : "#/components/schemas/RateItem"
            }
          },
          "related_packages" : {
            "type" : "array",
            "items" : {
              "type" : "integer"
            },
            "example" : [ 2, 3, 4, 5, 6, 7, 8 ]
          },
          "base_related_packages" : {
            "type" : "array",
            "items" : {
              "type" : "integer"
            },
            "example" : [ 2 ]
          },
          "other_related_packages" : {
            "type" : "array",
            "items" : {
              "type" : "integer"
            },
            "example" : [ 3 ]
          }
        }
      },
      "SearchRelatedItem" : {
        "type" : "object",
        "required" : [ "id", "can_sell", "accomodation", "images", "prices", "prices_with_markup" ],
        "properties" : {
          "id" : {
            "type" : "integer",
            "example" : 1
          },
          "can_sell" : {
            "type" : "boolean",
            "description" : "Booleano que determina si la salida puede venderse o no en base a la visibilidad y disponibilidad de la misma.",
            "example" : true
          },
          "accomodation" : {
            "type" : "array",
            "items" : {
              "$ref" : "#/components/schemas/AccomodationItem"
            }
          },
          "images" : {
            "type" : "array",
            "items" : {
              "$ref" : "#/components/schemas/ImageItem"
            }
          },
          "prices" : {
            "type" : "array",
            "items" : {
              "$ref" : "#/components/schemas/RateItem"
            }
          },
          "prices_with_markup" : {
            "type" : "array",
            "items" : {
              "$ref" : "#/components/schemas/RateItem"
            }
          }
        }
      },
      "ReserveDataParam" : {
        "type" : "object",
        "required" : [ "seller_email", "agency_id" ],
        "properties" : {
          "seller_email" : {
            "type" : "string",
            "description" : "Email del vendedor.",
            "example" : "jonatan.sivori@aerolaplata.com.ar"
          },
          "agency_id" : {
            "type" : "integer",
            "description" : "Identificador único de una agencia.",
            "example" : 180
          }
        }
      },
      "PassengerDataParam" : {
        "type" : "object",
        "required" : [ "first_name", "last_name", "document_type", "document_number", "birthdate" ],
        "properties" : {
          "first_name" : {
            "type" : "string",
            "description" : "Nombre del pasajero.",
            "example" : "Nombre"
          },
          "last_name" : {
            "type" : "string",
            "description" : "Apellido del pasajero.",
            "example" : "Apellido"
          },
          "document_type" : {
            "type" : "string",
            "description" : "Tipo de documento del pasajero.",
            "enum" : [ "DNI", "VISA", "PASAPORTE" ],
            "example" : "DNI"
          },
          "document_number" : {
            "type" : "string",
            "description" : "Numero de documento del pasajero.",
            "example" : "34343434"
          },
          "birthdate" : {
            "$ref" : "#/components/schemas/Date"
          }
        }
      },
      "locationIds" : {
        "description" : "Arreglo de identificadores únicos de destinos para la búsqueda. En mismo formato, acepta un único identificador.",
        "type" : "array",
        "items" : {
          "type" : "string",
          "pattern" : "^(\\d{1,5})((,\\s*\\d{1,5})*)?"
        },
        "example" : [ "3453, 1234" ]
      },
      "locationNames" : {
        "description" : "Arreglo de nombres de destinos para la búsqueda. En mismo formato, acepta un único identificador.",
        "type" : "array",
        "items" : {
          "type" : "string",
          "example" : "Cancun"
        },
        "example" : [ "Cancun", "Lima" ]
      },
      "visible" : {
        "type" : "string",
        "description" : "Determina si las salidas a buscar tienen que estar o no visibles, la omisión de este paraámetro se toma como `true`.",
        "example" : false
      },
      "FindWithParamsData" : {
        "type" : "object",
        "description" : "Informacion necesaria para la busqueda con parametros opcionales.",
        "required" : [ "start_date", "end_date", "adults_count", "location_ids", "location_names", "visible" ],
        "properties" : {
          "start_date" : {
            "$ref" : "#/components/schemas/Date"
          },
          "end_date" : {
            "$ref" : "#/components/schemas/Date"
          },
          "adults_count" : {
            "type" : "integer",
            "example" : 1
          },
          "location_ids" : {
            "$ref" : "#/components/schemas/locationIds"
          },
          "location_names" : {
            "$ref" : "#/components/schemas/locationNames"
          },
          "visible" : {
            "$ref" : "#/components/schemas/visible"
          }
        }
      },
      "BookingDataParam" : {
        "type" : "object",
        "description" : "Informacion necesaria para el booking de una reserva.",
        "required" : [ "adults_number", "reserve_data", "passengers" ],
        "properties" : {
          "adults_number" : {
            "type" : "integer",
            "example" : 1
          },
          "reserve_data" : {
            "$ref" : "#/components/schemas/ReserveDataParam"
          },
          "passengers" : {
            "$ref" : "#/components/schemas/PassengerDataParam"
          }
        }
      },
      "RateDescriptionItem" : {
        "type" : "object",
        "description" : "Detalle de importe para endpoints de TravelPack.",
        "required" : [ "rate", "amount", "base", "description" ],
        "properties" : {
          "rate" : {
            "type" : "number",
            "format" : "float",
            "example" : 21
          },
          "amount" : {
            "type" : "number",
            "format" : "float",
            "example" : 15.15
          },
          "base" : {
            "type" : "number",
            "format" : "float",
            "example" : 72.13
          },
          "description" : {
            "type" : "string",
            "example" : "Gastos administrativos"
          }
        }
      },
      "RateDescriptionMinItem" : {
        "type" : "object",
        "description" : "Detalle de importe para endpoints de TravelPack.",
        "required" : [ "amount", "description" ],
        "properties" : {
          "amount" : {
            "type" : "number",
            "format" : "float",
            "example" : 15.15
          },
          "description" : {
            "type" : "string",
            "example" : "Gastos administrativos"
          }
        }
      },
      "PreliquidationItem" : {
        "type" : "object",
        "required" : [ "total", "TourismTaxes", "FiscalTaxes", "NonCommissionableService", "commission_amount", "commissionable_price" ],
        "properties" : {
          "total" : {
            "type" : "integer",
            "format" : "float",
            "example" : 1101.48
          },
          "TourismTaxes" : {
            "$ref" : "#/components/schemas/RateDescriptionItem"
          },
          "FiscalTaxes" : {
            "type" : "array",
            "items" : {
              "$ref" : "#/components/schemas/RateDescriptionItem"
            }
          },
          "NonCommissionableService" : {
            "type" : "array",
            "items" : {
              "$ref" : "#/components/schemas/RateDescriptionMinItem"
            }
          },
          "commission_amount" : {
            "type" : "integer",
            "format" : "float",
            "example" : 0.0
          },
          "commissionable_price" : {
            "type" : "integer",
            "format" : "float",
            "example" : 857.0
          }
        }
      }
    },
    "responses" : {
      "StandardError" : {
        "description" : "Respuesta de error estandar.",
        "content" : {
          "application/json" : {
            "schema" : {
              "type" : "object",
              "properties" : {
                "status" : {
                  "type" : "string",
                  "description" : "Estado del request",
                  "example" : "error"
                },
                "notifications" : {
                  "type" : "array",
                  "description" : "Detalle del/los error/s.",
                  "example" : [ ],
                  "items" : {
                    "type" : "string"
                  }
                },
                "info" : {
                  "type" : "array",
                  "description" : "Arreglo vacío.",
                  "items" : {
                    "type" : "object",
                    "example" : [ ]
                  }
                }
              }
            }
          }
        }
      },
      "StandardNotFoundError" : {
        "description" : "Respuesta de error estandar para recurso no encontrado.",
        "content" : {
          "application/json" : {
            "schema" : {
              "type" : "object",
              "properties" : {
                "status" : {
                  "type" : "string",
                  "description" : "Estado del request",
                  "example" : "error"
                },
                "notifications" : {
                  "type" : "array",
                  "description" : "Detalle del/los error/s.",
                  "example" : [ "El paquete no existe" ],
                  "items" : {
                    "type" : "string"
                  }
                },
                "info" : {
                  "type" : "array",
                  "description" : "Arreglo vacío.",
                  "items" : {
                    "type" : "object",
                    "example" : [ ]
                  }
                }
              }
            }
          }
        }
      },
      "StandardNotFoundReserveError" : {
        "description" : "Respuesta de error estandar para una reserva no encontrada.",
        "content" : {
          "application/json" : {
            "schema" : {
              "type" : "object",
              "properties" : {
                "status" : {
                  "type" : "string",
                  "description" : "Estado del request",
                  "example" : "error"
                },
                "notifications" : {
                  "type" : "array",
                  "description" : "Detalle del/los error/s.",
                  "example" : [ "La reserva no existe" ],
                  "items" : {
                    "type" : "string"
                  }
                },
                "info" : {
                  "type" : "array",
                  "description" : "Arreglo vacío.",
                  "items" : {
                    "type" : "object",
                    "example" : [ ]
                  }
                }
              }
            }
          }
        }
      },
      "StandardPackageItem" : {
        "description" : "Respuesta estándar con la salida.",
        "content" : {
          "application/json" : {
            "schema" : {
              "type" : "object",
              "properties" : {
                "status" : {
                  "type" : "string",
                  "description" : "Estado del request",
                  "example" : "ok"
                },
                "notifications" : {
                  "type" : "array",
                  "description" : "Notificaciones.",
                  "example" : [ ],
                  "items" : {
                    "type" : "string"
                  }
                },
                "info" : {
                  "$ref" : "#/components/schemas/SearchItem"
                }
              }
            }
          }
        }
      },
      "StandardPackageItems" : {
        "description" : "Respuesta estándar con la salida.",
        "content" : {
          "application/json" : {
            "schema" : {
              "type" : "object",
              "properties" : {
                "status" : {
                  "type" : "string",
                  "description" : "Estado del request",
                  "example" : "ok"
                },
                "notifications" : {
                  "type" : "array",
                  "description" : "Notificaciones.",
                  "example" : [ ],
                  "items" : {
                    "type" : "string"
                  }
                },
                "info" : {
                  "type" : "array",
                  "description" : "Colección de salidas.",
                  "items" : {
                    "$ref" : "#/components/schemas/SearchItem"
                  }
                }
              }
            }
          }
        }
      },
      "StandardAvailableResponseItem" : {
        "description" : "Respuesta estándar para disponibilidad.",
        "content" : {
          "application/json" : {
            "schema" : {
              "type" : "object",
              "properties" : {
                "status" : {
                  "type" : "string",
                  "description" : "Estado del request",
                  "example" : "ok"
                },
                "notifications" : {
                  "type" : "array",
                  "description" : "Notificaciones.",
                  "example" : [ ],
                  "items" : {
                    "type" : "string"
                  }
                },
                "info" : {
                  "type" : "boolean",
                  "description" : "Respuesta booleana de disponibilidad de la salida.",
                  "example" : true
                }
              }
            }
          }
        }
      },
      "StandardOtherResponseItem" : {
        "description" : "Respuesta estándar con las salidas relacionadas a una salida puntual.",
        "content" : {
          "application/json" : {
            "schema" : {
              "type" : "object",
              "properties" : {
                "status" : {
                  "type" : "string",
                  "description" : "Estado del request",
                  "example" : "ok"
                },
                "notifications" : {
                  "type" : "array",
                  "description" : "Notificaciones.",
                  "example" : [ ],
                  "items" : {
                    "type" : "string"
                  }
                },
                "info" : {
                  "type" : "array",
                  "description" : "Colección de salidas.",
                  "items" : {
                    "$ref" : "#/components/schemas/SearchRelatedItem"
                  }
                }
              }
            }
          }
        }
      },
      "StandardReserveActionResponseItem" : {
        "description" : "Respuesta estándar para acciones de la reserva.",
        "content" : {
          "application/json" : {
            "schema" : {
              "type" : "object",
              "properties" : {
                "status" : {
                  "type" : "string",
                  "description" : "Estado del request",
                  "example" : "ok"
                },
                "notifications" : {
                  "type" : "array",
                  "description" : "Notificaciones.",
                  "example" : [ "Se ha enviado el mail a juliana.soto@aerolaplata.com.ar" ],
                  "items" : {
                    "type" : "string"
                  }
                },
                "info" : {
                  "type" : "boolean",
                  "description" : "Respuesta booleana que referencia como terminó en el endpoint.",
                  "example" : true
                }
              }
            }
          }
        }
      },
      "PricePackageItem" : {
        "description" : "Respuesta estándar con la salida.",
        "content" : {
          "application/json" : {
            "schema" : {
              "type" : "object",
              "properties" : {
                "status" : {
                  "type" : "string",
                  "description" : "Estado del request",
                  "example" : "ok"
                },
                "notifications" : {
                  "type" : "array",
                  "description" : "Notificaciones.",
                  "example" : [ ],
                  "items" : {
                    "type" : "string"
                  }
                },
                "info" : {
                  "$ref" : "#/components/schemas/PreliquidationItem"
                }
              }
            }
          }
        }
      }
    },
    "parameters" : {
      "requestIdParam" : {
        "in" : "path",
        "name" : "id",
        "required" : true,
        "schema" : {
          "type" : "integer"
        },
        "description" : "Identificador unívoco del elemento que se busca.",
        "example" : 1
      },
      "requestReserveIdParam" : {
        "in" : "path",
        "name" : "reserve_id",
        "required" : true,
        "schema" : {
          "type" : "integer"
        },
        "description" : "Identificador unívoco de una reserva.",
        "example" : 35048
      }
    }
  },
  "paths" : {
    "/api/packages" : {
      "get" : {
        "tags" : [ "Index" ],
        "summary" : "Listado general.",
        "description" : "Obtiene un listado de salidas disponibles y visibles con fecha mayor o igual al día actual.\n",
        "operationId" : "index",
        "responses" : {
          "200" : {
            "$ref" : "#/components/responses/StandardPackageItems"
          },
          "400" : {
            "$ref" : "#/components/responses/StandardError"
          }
        }
      }
    },
    "/api/packages/:id" : {
      "get" : {
        "tags" : [ "Find" ],
        "summary" : "Búqueda puntual de una salida por identificador único.",
        "description" : "Obtiene la información de una salida puntual, obviando si esta disponible o pasada de la fecha actual.\n",
        "operationId" : "searchPackage",
        "parameters" : [ {
          "$ref" : "#/components/parameters/requestIdParam"
        } ],
        "responses" : {
          "200" : {
            "$ref" : "#/components/responses/StandardPackageItem"
          },
          "400" : {
            "$ref" : "#/components/responses/StandardError"
          }
        }
      }
    },
    "/api/packages/find_with_params" : {
      "post" : {
        "tags" : [ "Find with parameters" ],
        "summary" : "Búqueda de salidas con parámetros puntuales opcionales.",
        "description" : "Obtiene la información de las salidas que se corresponden con los parámetros enviados, algunos de estos son opcionales y otros no.\n",
        "operationId" : "find_with_parameters",
        "requestBody" : {
          "required" : true,
          "content" : {
            "application/json" : {
              "schema" : {
                "$ref" : "#/components/schemas/FindWithParamsData"
              }
            }
          }
        },
        "responses" : {
          "200" : {
            "$ref" : "#/components/responses/StandardPackageItems"
          },
          "400" : {
            "$ref" : "#/components/responses/StandardError"
          }
        }
      }
    },
    "/api/packages/:id/availability" : {
      "get" : {
        "tags" : [ "Availability" ],
        "summary" : "Consulta de disponibilidad de una salida.",
        "description" : "Este endpoint además de consultar por la disponibilidad de una salida, actualiza las disponibilidades de cada elemento que la compone y por tanto la disponibilidad y precios de la salida en sí misma.\n",
        "operationId" : "availability",
        "parameters" : [ {
          "$ref" : "#/components/parameters/requestIdParam"
        } ],
        "responses" : {
          "200" : {
            "$ref" : "#/components/responses/StandardAvailableResponseItem"
          },
          "400" : {
            "$ref" : "#/components/responses/StandardNotFoundError"
          }
        }
      }
    },
    "/api/packages/:id/other_bases" : {
      "get" : {
        "tags" : [ "Other Bases" ],
        "summary" : "Alternativas a una salida puntual.",
        "description" : "Basándose en una salida puntual por medio de su identificador único, este endpoint nos devuelve otra salidas que esten relacionadas a la misma de acuerdo a la base en la que la salida esta creada, entiéndase por SGL, DBL, TPL, etc.\n",
        "operationId" : "other_bases",
        "parameters" : [ {
          "$ref" : "#/components/parameters/requestIdParam"
        } ],
        "responses" : {
          "200" : {
            "$ref" : "#/components/responses/StandardOtherResponseItem"
          },
          "400" : {
            "$ref" : "#/components/responses/StandardNotFoundError"
          }
        }
      }
    },
    "/api/packages/:id/other_options" : {
      "get" : {
        "tags" : [ "Other options" ],
        "summary" : "Alternativas a una salida puntual.",
        "description" : "Basándose en una salida puntual por medio de su identificador único, este endpoint nos devuelve otra salidas que esten relacionadas a la misma de acuerdo a los destinos o lugares y cupos aéreos de la salida identificada.\n",
        "operationId" : "other_options",
        "parameters" : [ {
          "$ref" : "#/components/parameters/requestIdParam"
        } ],
        "responses" : {
          "200" : {
            "$ref" : "#/components/responses/StandardOtherResponseItem"
          },
          "400" : {
            "$ref" : "#/components/responses/StandardNotFoundError"
          }
        }
      }
    },
    "/api/packages/:id/reserve" : {
      "post" : {
        "tags" : [ "Reserve" ],
        "summary" : "Genera una reserva.",
        "description" : "Este endpoint crea la reserva con los servicios en el sistema backend. \n\nRequiere un par de parametros, el id de la salida puntual que pertenece al paquete y los parametros para el booking de la reserva.\n",
        "operationId" : "reserve",
        "parameters" : [ {
          "$ref" : "#/components/parameters/requestIdParam"
        } ],
        "requestBody" : {
          "required" : true,
          "content" : {
            "application/json" : {
              "schema" : {
                "type" : "object",
                "required" : [ "booking_params" ],
                "properties" : {
                  "booking_params" : {
                    "$ref" : "#/components/schemas/BookingDataParam"
                  }
                }
              }
            }
          }
        },
        "responses" : {
          "200" : {
            "$ref" : "#/components/responses/StandardReserveActionResponseItem"
          },
          "400" : {
            "$ref" : "#/components/responses/StandardNotFoundReserveError"
          }
        }
      }
    },
    "/api/packages/reserve_to_cancel" : {
      "get" : {
        "tags" : [ "Cancel reserve" ],
        "summary" : "Cancelar una reserva.",
        "description" : "Este endpoint envía un mail al vendedor u operativo asociado a la reserva para solicitar la cancelación de la misma asociada a un paquete. El id_reserve debe corresponderse con el ID de reserva del MO.\n\nEs en este punto donde se puede automatizar el sistema enviando la cancelación de cupos al sistema de cupos.\n",
        "operationId" : "other_options",
        "parameters" : [ {
          "$ref" : "#/components/parameters/requestReserveIdParam"
        } ],
        "responses" : {
          "200" : {
            "$ref" : "#/components/responses/StandardReserveActionResponseItem"
          },
          "400" : {
            "$ref" : "#/components/responses/StandardNotFoundReserveError"
          }
        }
      }
    },
    "/api/packages/:id/get_price_info" : {
      "get" : {
        "tags" : [ "Get Price Info" ],
        "summary" : "Preliquidacion de la salida puntual.",
        "description" : "Obtiene los valores puntuales de una salida con un formato solicitado detallado.\n",
        "operationId" : "getPriceInfo",
        "parameters" : [ {
          "$ref" : "#/components/parameters/requestIdParam"
        } ],
        "responses" : {
          "200" : {
            "$ref" : "#/components/responses/PricePackageItem"
          },
          "400" : {
            "$ref" : "#/components/responses/StandardError"
          }
        }
      }
    }
  },
  "servers" : [ {
    "description" : "SwaggerHub API Auto Mocking",
    "url" : "https://virtserver.swaggerhub.com/jsivori/Aero-Packs/1.0"
  } ]
}